{
  "data": [
    {
      "question": "What is Novel corona virus?",
      "answer": "On February 11, 2020 the World Health Organization announced an official name for the disease that is causing the 2019 novel coronavirus outbreak, first identified in Wuhan, China. The name of this disease is coronavirus disease 2019, abbreviated as COVID-19. In COVID-19, ‘CO’ stands for ‘corona,’ ‘VI’ for ‘virus,’ and ‘D’ for disease. Formerly, this disease was referred to as “2019 novel coronavirus” or “2019-nCoV”."
    },
    {
      "question": "How can people help stop stigma related to COVID-19?",
      "answer": "People can fight stigma by providing social support in situations where you notice this is occurring. Stigma affects the emotional of stigmatized groups and the communities they live in. Stopping stigma is important to making communities and community members resilient."
    },
    {
      "question": "What is the source of Virus",
      "answer": "COVID-19 is caused by a coronavirus called SARS-CoV-2. Coronaviruses are a large family of viruses that are common in people and may different species of animals, including camels, cattle, cats, and bats.  Rarely, animal coronaviruses can infect people and then spread between people"
    },
    {
      "question": "How does this virus Spread",
      "answer": "The virus that causes COVID-19 is thought to spread mainly from person to person, mainly through respiratory droplets produced when an infected person coughs or sneezes. These droplets can land in the mouths or noses of people who are nearby or possibly be inhaled into the lungs. Spread is more likely when people are in close contact with one another (within about 6 feet)."
    },
    {
      "question": "Can i get sick with COVID-19 if it's on food",
      "answer": "Based on information about this novel coronavirus thus far, it seems unlikely that COVID-19 can be transmitted through food – additional investigation is needed."
    },
    {
      "question": "What is community spread?",
      "answer": "Community spread means people have been infected with the virus in an area, including some who are not sure how or where they became infected."
    },
    {
      "question": "who is at higher risk for severe illness from COVID-19",
      "answer": "Based on currently available information and clinical expertise, older adults and people of any age who have serious underlying medical conditions (eg. diabetes ,chronic kidney disease undergoing dialysis, liver disease, age 65+) might be at higher risk for severe illness from COVID-19"
    },
    {
      "question": "Can i get sick with COVID-19 if it's on food",
      "answer": "Based on information about this novel coronavirus thus far, it seems unlikely that COVID-19 can be transmitted through food – additional investigation is needed."
    }
  ]
}